<svg xmlns="http://www.w3.org/2000/svg" width="28" height="28" viewBox="0 0 28 28">
  <g id="Group_5743" data-name="Group 5743" transform="translate(-914 -1450)">
    <g id="Group_5736" data-name="Group 5736" transform="translate(919 1455)">
      <path id="Path_2042" data-name="Path 2042" d="M1411,182.174c2.523,0,2.825,0,3.822.056a5.138,5.138,0,0,1,1.756.326,3.143,3.143,0,0,1,1.792,1.792,5.141,5.141,0,0,1,.326,1.756c.048,1,.056,1.3.056,3.822s0,2.825-.056,3.822a5.142,5.142,0,0,1-.326,1.756,3.143,3.143,0,0,1-1.792,1.792,5.138,5.138,0,0,1-1.756.326c-1,.048-1.3.056-3.822.056s-2.824,0-3.822-.056a5.138,5.138,0,0,1-1.756-.326,3.142,3.142,0,0,1-1.792-1.792,5.136,5.136,0,0,1-.326-1.756c-.048-1-.056-1.3-.056-3.822s0-2.825.056-3.822a5.136,5.136,0,0,1,.326-1.756,3.142,3.142,0,0,1,1.792-1.792,5.138,5.138,0,0,1,1.756-.326c1-.048,1.3-.056,3.822-.056m0-1.7c-2.566,0-2.888,0-3.9.056a6.947,6.947,0,0,0-2.3.441,4.806,4.806,0,0,0-2.781,2.781,6.949,6.949,0,0,0-.441,2.3c-.044,1.009-.056,1.331-.056,3.9s0,2.888.056,3.9a6.947,6.947,0,0,0,.441,2.3,4.806,4.806,0,0,0,2.781,2.781,6.948,6.948,0,0,0,2.3.441c1.009.044,1.331.056,3.9.056s2.888,0,3.9-.056a6.948,6.948,0,0,0,2.3-.441,4.805,4.805,0,0,0,2.781-2.781,6.944,6.944,0,0,0,.441-2.3c.044-1.009.056-1.331.056-3.9s0-2.888-.056-3.9a6.946,6.946,0,0,0-.441-2.3,4.805,4.805,0,0,0-2.781-2.781,6.948,6.948,0,0,0-2.3-.441C1413.889,180.482,1413.567,180.47,1411,180.47Z" transform="translate(-1401.53 -180.47)" fill="#150512"/>
      <path id="Path_2043" data-name="Path 2043" d="M1418,192.04a4.855,4.855,0,1,0,4.854,4.855h0A4.854,4.854,0,0,0,1418,192.04Zm0,8a3.15,3.15,0,1,1,3.15-3.15h0A3.15,3.15,0,0,1,1418,200.045Z" transform="translate(-1408.534 -187.444)" fill="#150512"/>
      <ellipse id="Ellipse_246" data-name="Ellipse 246" cx="1.136" cy="1.136" rx="1.136" ry="1.136" transform="translate(13.38 3.269)" fill="#150512"/>
    </g>
    <rect id="Rectangle_1452" data-name="Rectangle 1452" width="28" height="28" transform="translate(914 1450)" fill="none"/>
  </g>
</svg>
